[
  {
    "operation": "shift",
    "spec": {
      "*": {
        "owner" : {
            "login": "[&2].owner"
        },
        "url": "[&1].url",
        "name": "[&1].name",
        "description": "[&1].description"
      }
    }
  }
]
